{"count":54836,"next":"https://www.courtlistener.com/api/rest/v3/clusters/?date_filed__lt=2000-01-01&docket__court=calctapp&order_by=date_filed&page=2&precedential_status=Published","previous":null,"results":[{"resource_uri":"https://www.courtlistener.com/api/rest/v3/clusters/1258347/","absolute_url":"/opinion/1258347/hollyfield-v-geibel/","panel":[],"non_participating_judges":[],"docket":"https://www.courtlistener.com/api/rest/v3/dockets/704139/","sub_opinions":["https://www.courtlistener.com/api/rest/v3/opinions/1258347/"],"judges":"Thompson","per_curiam":false,"date_created":"2014-10-30T11:38:35.125517Z","date_modified":"2016-03-03T19:21:49.878148Z","date_filed":"1934-04-02","slug":"hollyfield-v-geibel","citation_id":1231118,"case_name_short":"Hollyfield","case_name":"Hollyfield v. Geibel","case_name_full":"","federal_cite_one":"","federal_cite_two":"","federal_cite_three":"","state_cite_one":"20 Cal. App. 2d 142","state_cite_two":"","state_cite_three":"","state_cite_regional":"","specialty_cite_one":"","scotus_early_cite":"","lexis_cite":"","westlaw_cite":"","neutral_cite":"","scdb_id":"","scdb_decision_direction":null,"scdb_votes_majority":null,"scdb_votes_minority":null,"source":"L","procedural_history":"","attorneys":"","nature_of_suit":"","posture":"","syllabus":"","citation_count":7,"precedential_status":"Published","date_blocked":null,"blocked":false},{"resource_uri":"https://www.courtlistener.com/api/rest/v3/clusters/1149529/","absolute_url":"/opinion/1149529/people-v-arthur/","panel":[],"non_participating_judges":[],"docket":"https://www.courtlistener.com/api/rest/v3/dockets/543077/","sub_opinions":["https://www.courtlistener.com/api/rest/v3/opinions/1149529/"],"judges":"Shaw","per_curiam":false,"date_created":"2014-10-30T10:20:17.491217Z","date_modified":"2016-03-03T19:03:06.407063Z","date_filed":"1934-05-11","slug":"people-v-arthur","citation_id":1122300,"case_name_short":"Arthur","case_name":"People v. Arthur","case_name_full":"","federal_cite_one":"","federal_cite_two":"","federal_cite_three":"","state_cite_one":"1 Cal. App. Supp. 2d 768","state_cite_two":"","state_cite_three":"","state_cite_regional":"","specialty_cite_one":"","scotus_early_cite":"","lexis_cite":"","westlaw_cite":"","neutral_cite":"","scdb_id":"","scdb_decision_direction":null,"scdb_votes_majority":null,"scdb_votes_minority":null,"source":"L","procedural_history":"","attorneys":"","nature_of_suit":"","posture":"","syllabus":"","citation_count":5,"precedential_status":"Published","date_blocked":null,"blocked":false},{"resource_uri":"https://www.courtlistener.com/api/rest/v3/clusters/1264318/","absolute_url":"/opinion/1264318/people-v-lawyer/","panel":[],"non_participating_judges":[],"docket":"https://www.courtlistener.com/api/rest/v3/dockets/715002/","sub_opinions":["https://www.courtlistener.com/api/rest/v3/opinions/1264318/"],"judges":"Spence","per_curiam":false,"date_created":"2014-10-30T11:43:58.209554Z","date_modified":"2016-03-03T19:22:56.678524Z","date_filed":"1934-09-20","slug":"people-v-lawyer","citation_id":1237089,"case_name_short":"Lawyer","case_name":"People v. Lawyer","case_name_full":"","federal_cite_one":"","federal_cite_two":"","federal_cite_three":"","state_cite_one":"1 Cal. App. 2d 1","state_cite_two":"","state_cite_three":"","state_cite_regional":"","specialty_cite_one":"","scotus_early_cite":"","lexis_cite":"","westlaw_cite":"","neutral_cite":"","scdb_id":"","scdb_decision_direction":null,"scdb_votes_majority":null,"scdb_votes_minority":null,"source":"L","procedural_history":"","attorneys":"","nature_of_suit":"","posture":"","syllabus":"","citation_count":7,"precedential_status":"Published","date_blocked":null,"blocked":false},{"resource_uri":"https://www.courtlistener.com/api/rest/v3/clusters/2608124/","absolute_url":"/opinion/2608124/debrincat-v-mogan/","panel":[],"non_participating_judges":[],"docket":"https://www.courtlistener.com/api/rest/v3/dockets/187720/","sub_opinions":["https://www.courtlistener.com/api/rest/v3/opinions/2608124/"],"judges":"Nourse","per_curiam":false,"date_created":"2014-10-30T07:22:19.905872Z","date_modified":"2016-03-03T22:32:09.316105Z","date_filed":"1934-09-21","slug":"debrincat-v-mogan","citation_id":2580896,"case_name_short":"DeBrincat","case_name":"DeBrincat v. Mogan","case_name_full":"","federal_cite_one":"","federal_cite_two":"","federal_cite_three":"","state_cite_one":"1 Cal. App. 2d 7","state_cite_two":"","state_cite_three":"","state_cite_regional":"","specialty_cite_one":"","scotus_early_cite":"","lexis_cite":"","westlaw_cite":"","neutral_cite":"","scdb_id":"","scdb_decision_direction":null,"scdb_votes_majority":null,"scdb_votes_minority":null,"source":"L","procedural_history":"","attorneys":"","nature_of_suit":"","posture":"","syllabus":"","citation_count":12,"precedential_status":"Published","date_blocked":null,"blocked":false},{"resource_uri":"https://www.courtlistener.com/api/rest/v3/clusters/2208717/","absolute_url":"/opinion/2208717/losson-v-blodgett/","panel":[],"non_participating_judges":[],"docket":"https://www.courtlistener.com/api/rest/v3/dockets/2078774/","sub_opinions":["https://www.courtlistener.com/api/rest/v3/opinions/2208717/"],"judges":"","per_curiam":false,"date_created":"2014-10-30T21:45:03.974734Z","date_modified":"2016-03-03T21:44:48.340162Z","date_filed":"1934-09-21","slug":"losson-v-blodgett","citation_id":2181488,"case_name_short":"Losson","case_name":"Losson v. Blodgett","case_name_full":"","federal_cite_one":"","federal_cite_two":"","federal_cite_three":"","state_cite_one":"1 Cal. App. 2d 13","state_cite_two":"","state_cite_three":"","state_cite_regional":"","specialty_cite_one":"","scotus_early_cite":"","lexis_cite":"","westlaw_cite":"","neutral_cite":"","scdb_id":"","scdb_decision_direction":null,"scdb_votes_majority":null,"scdb_votes_minority":null,"source":"L","procedural_history":"","attorneys":"","nature_of_suit":"","posture":"","syllabus":"","citation_count":5,"precedential_status":"Published","date_blocked":null,"blocked":false},{"resource_uri":"https://www.courtlistener.com/api/rest/v3/clusters/2608120/","absolute_url":"/opinion/2608120/county-of-sonoma-v-sanborn/","panel":[],"non_participating_judges":[],"docket":"https://www.courtlistener.com/api/rest/v3/dockets/187636/","sub_opinions":["https://www.courtlistener.com/api/rest/v3/opinions/2608120/"],"judges":"Thompson","per_curiam":false,"date_created":"2014-10-30T07:22:18.686904Z","date_modified":"2016-03-03T22:32:09.278615Z","date_filed":"1934-09-22","slug":"county-of-sonoma-v-sanborn","citation_id":2580892,"case_name_short":"Sanborn","case_name":"County of Sonoma v. Sanborn","case_name_full":"","federal_cite_one":"","federal_cite_two":"","federal_cite_three":"","state_cite_one":"1 Cal. App. 2d 26","state_cite_two":"","state_cite_three":"","state_cite_regional":"","specialty_cite_one":"","scotus_early_cite":"","lexis_cite":"","westlaw_cite":"","neutral_cite":"","scdb_id":"","scdb_decision_direction":null,"scdb_votes_majority":null,"scdb_votes_minority":null,"source":"L","procedural_history":"","attorneys":"","nature_of_suit":"","posture":"","syllabus":"","citation_count":6,"precedential_status":"Published","date_blocked":null,"blocked":false},{"resource_uri":"https://www.courtlistener.com/api/rest/v3/clusters/2608098/","absolute_url":"/opinion/2608098/chardon-v-alameda-park-co/","panel":[],"non_participating_judges":[],"docket":"https://www.courtlistener.com/api/rest/v3/dockets/187475/","sub_opinions":["https://www.courtlistener.com/api/rest/v3/opinions/2608098/"],"judges":"Knight","per_curiam":false,"date_created":"2014-10-30T07:22:15.978381Z","date_modified":"2016-03-03T22:32:09.117340Z","date_filed":"1934-09-22","slug":"chardon-v-alameda-park-co","citation_id":2580870,"case_name_short":"Chardon","case_name":"Chardon v. Alameda Park Co.","case_name_full":"","federal_cite_one":"","federal_cite_two":"","federal_cite_three":"","state_cite_one":"1 Cal. App. 2d 18","state_cite_two":"","state_cite_three":"","state_cite_regional":"","specialty_cite_one":"","scotus_early_cite":"","lexis_cite":"","westlaw_cite":"","neutral_cite":"","scdb_id":"","scdb_decision_direction":null,"scdb_votes_majority":null,"scdb_votes_minority":null,"source":"L","procedural_history":"","attorneys":"","nature_of_suit":"","posture":"","syllabus":"","citation_count":5,"precedential_status":"Published","date_blocked":null,"blocked":false},{"resource_uri":"https://www.courtlistener.com/api/rest/v3/clusters/2608130/","absolute_url":"/opinion/2608130/people-v-flores/","panel":[],"non_participating_judges":[],"docket":"https://www.courtlistener.com/api/rest/v3/dockets/187656/","sub_opinions":["https://www.courtlistener.com/api/rest/v3/opinions/2608130/"],"judges":"Barnard","per_curiam":false,"date_created":"2014-10-30T07:22:18.962262Z","date_modified":"2016-03-03T22:32:09.371097Z","date_filed":"1934-09-24","slug":"people-v-flores","citation_id":2580902,"case_name_short":"Flores","case_name":"People v. Flores","case_name_full":"","federal_cite_one":"","federal_cite_two":"","federal_cite_three":"","state_cite_one":"1 Cal. App. 2d 58","state_cite_two":"","state_cite_three":"","state_cite_regional":"","specialty_cite_one":"","scotus_early_cite":"","lexis_cite":"","westlaw_cite":"","neutral_cite":"","scdb_id":"","scdb_decision_direction":null,"scdb_votes_majority":null,"scdb_votes_minority":null,"source":"L","procedural_history":"","attorneys":"","nature_of_suit":"","posture":"","syllabus":"","citation_count":2,"precedential_status":"Published","date_blocked":null,"blocked":false},{"resource_uri":"https://www.courtlistener.com/api/rest/v3/clusters/2608118/","absolute_url":"/opinion/2608118/lima-v-industrial-acc-com/","panel":[],"non_participating_judges":[],"docket":"https://www.courtlistener.com/api/rest/v3/dockets/187691/","sub_opinions":["https://www.courtlistener.com/api/rest/v3/opinions/2608118/"],"judges":"","per_curiam":false,"date_created":"2014-10-30T07:22:19.481350Z","date_modified":"2016-03-03T22:32:09.261609Z","date_filed":"1934-09-24","slug":"lima-v-industrial-acc-com","citation_id":2580890,"case_name_short":"Lima","case_name":"Lima v. Industrial Acc. Com.","case_name_full":"","federal_cite_one":"","federal_cite_two":"","federal_cite_three":"","state_cite_one":"1 Cal. App. 2d 43","state_cite_two":"","state_cite_three":"","state_cite_regional":"","specialty_cite_one":"","scotus_early_cite":"","lexis_cite":"","westlaw_cite":"","neutral_cite":"","scdb_id":"","scdb_decision_direction":null,"scdb_votes_majority":null,"scdb_votes_minority":null,"source":"L","procedural_history":"","attorneys":"","nature_of_suit":"","posture":"","syllabus":"","citation_count":1,"precedential_status":"Published","date_blocked":null,"blocked":false},{"resource_uri":"https://www.courtlistener.com/api/rest/v3/clusters/2608094/","absolute_url":"/opinion/2608094/james-v-white-truck-and-transfer-co/","panel":[],"non_participating_judges":[],"docket":"https://www.courtlistener.com/api/rest/v3/dockets/187561/","sub_opinions":["https://www.courtlistener.com/api/rest/v3/opinions/2608094/"],"judges":"","per_curiam":false,"date_created":"2014-10-30T07:22:17.397193Z","date_modified":"2016-03-03T22:32:09.082840Z","date_filed":"1934-09-24","slug":"james-v-white-truck-and-transfer-co","citation_id":2580866,"case_name_short":"James","case_name":"James v. White Truck and Transfer Co.","case_name_full":"","federal_cite_one":"","federal_cite_two":"","federal_cite_three":"","state_cite_one":"1 Cal. App. 2d 37","state_cite_two":"","state_cite_three":"","state_cite_regional":"","specialty_cite_one":"","scotus_early_cite":"","lexis_cite":"","westlaw_cite":"","neutral_cite":"","scdb_id":"","scdb_decision_direction":null,"scdb_votes_majority":null,"scdb_votes_minority":null,"source":"L","procedural_history":"","attorneys":"","nature_of_suit":"","posture":"","syllabus":"","citation_count":9,"precedential_status":"Published","date_blocked":null,"blocked":false},{"resource_uri":"https://www.courtlistener.com/api/rest/v3/clusters/2608090/","absolute_url":"/opinion/2608090/north-v-evans/","panel":[],"non_participating_judges":[],"docket":"https://www.courtlistener.com/api/rest/v3/dockets/187328/","sub_opinions":["https://www.courtlistener.com/api/rest/v3/opinions/2608090/"],"judges":"Marks","per_curiam":false,"date_created":"2014-10-30T07:22:13.316887Z","date_modified":"2016-03-03T22:32:09.039557Z","date_filed":"1934-09-24","slug":"north-v-evans","citation_id":2580862,"case_name_short":"North","case_name":"North v. Evans","case_name_full":"","federal_cite_one":"","federal_cite_two":"","federal_cite_three":"","state_cite_one":"1 Cal. App. 2d 64","state_cite_two":"","state_cite_three":"","state_cite_regional":"","specialty_cite_one":"","scotus_early_cite":"","lexis_cite":"","westlaw_cite":"","neutral_cite":"","scdb_id":"","scdb_decision_direction":null,"scdb_votes_majority":null,"scdb_votes_minority":null,"source":"L","procedural_history":"","attorneys":"","nature_of_suit":"","posture":"","syllabus":"","citation_count":5,"precedential_status":"Published","date_blocked":null,"blocked":false},{"resource_uri":"https://www.courtlistener.com/api/rest/v3/clusters/2208650/","absolute_url":"/opinion/2208650/dryden-v-western-pacific-rr-co/","panel":[],"non_participating_judges":[],"docket":"https://www.courtlistener.com/api/rest/v3/dockets/2078670/","sub_opinions":["https://www.courtlistener.com/api/rest/v3/opinions/2208650/"],"judges":"Pullen","per_curiam":false,"date_created":"2014-10-30T21:45:01.555503Z","date_modified":"2014-10-30T21:45:01.555503Z","date_filed":"1934-09-24","slug":"dryden-v-western-pacific-rr-co","citation_id":2181421,"case_name_short":"Dryden","case_name":"Dryden v. Western Pacific RR Co.","case_name_full":"","federal_cite_one":"","federal_cite_two":"","federal_cite_three":"","state_cite_one":"1 Cal. App. 2d 49","state_cite_two":"","state_cite_three":"","state_cite_regional":"","specialty_cite_one":"","scotus_early_cite":"","lexis_cite":"","westlaw_cite":"","neutral_cite":"","scdb_id":"","scdb_decision_direction":null,"scdb_votes_majority":null,"scdb_votes_minority":null,"source":"L","procedural_history":"","attorneys":"","nature_of_suit":"","posture":"","syllabus":"","citation_count":0,"precedential_status":"Published","date_blocked":null,"blocked":false},{"resource_uri":"https://www.courtlistener.com/api/rest/v3/clusters/2608153/","absolute_url":"/opinion/2608153/estate-of-olcese/","panel":[],"non_participating_judges":[],"docket":"https://www.courtlistener.com/api/rest/v3/dockets/187876/","sub_opinions":["https://www.courtlistener.com/api/rest/v3/opinions/2608153/"],"judges":"Jennings","per_curiam":false,"date_created":"2014-10-30T07:22:22.911846Z","date_modified":"2016-03-03T22:32:09.638425Z","date_filed":"1934-09-25","slug":"estate-of-olcese","citation_id":2580925,"case_name_short":"","case_name":"Estate of Olcese","case_name_full":"","federal_cite_one":"","federal_cite_two":"","federal_cite_three":"","state_cite_one":"1 Cal. App. 2d 72","state_cite_two":"","state_cite_three":"","state_cite_regional":"","specialty_cite_one":"","scotus_early_cite":"","lexis_cite":"","westlaw_cite":"","neutral_cite":"","scdb_id":"","scdb_decision_direction":null,"scdb_votes_majority":null,"scdb_votes_minority":null,"source":"L","procedural_history":"","attorneys":"","nature_of_suit":"","posture":"","syllabus":"","citation_count":4,"precedential_status":"Published","date_blocked":null,"blocked":false},{"resource_uri":"https://www.courtlistener.com/api/rest/v3/clusters/2608146/","absolute_url":"/opinion/2608146/gutter-v-niesley/","panel":[],"non_participating_judges":[],"docket":"https://www.courtlistener.com/api/rest/v3/dockets/187878/","sub_opinions":["https://www.courtlistener.com/api/rest/v3/opinions/2608146/"],"judges":"Nourse","per_curiam":false,"date_created":"2014-10-30T07:22:22.935917Z","date_modified":"2016-03-03T22:32:09.554831Z","date_filed":"1934-09-25","slug":"gutter-v-niesley","citation_id":2580918,"case_name_short":"Gutter","case_name":"Gutter v. Niesley","case_name_full":"","federal_cite_one":"","federal_cite_two":"","federal_cite_three":"","state_cite_one":"1 Cal. App. 2d 69","state_cite_two":"","state_cite_three":"","state_cite_regional":"","specialty_cite_one":"","scotus_early_cite":"","lexis_cite":"","westlaw_cite":"","neutral_cite":"","scdb_id":"","scdb_decision_direction":null,"scdb_votes_majority":null,"scdb_votes_minority":null,"source":"L","procedural_history":"","attorneys":"","nature_of_suit":"","posture":"","syllabus":"","citation_count":1,"precedential_status":"Published","date_blocked":null,"blocked":false},{"resource_uri":"https://www.courtlistener.com/api/rest/v3/clusters/2608107/","absolute_url":"/opinion/2608107/people-v-dufault/","panel":[],"non_participating_judges":[],"docket":"https://www.courtlistener.com/api/rest/v3/dockets/187396/","sub_opinions":["https://www.courtlistener.com/api/rest/v3/opinions/2608107/"],"judges":"","per_curiam":false,"date_created":"2014-10-30T07:22:14.558178Z","date_modified":"2016-03-03T22:32:09.188768Z","date_filed":"1934-09-26","slug":"people-v-dufault","citation_id":2580879,"case_name_short":"Dufault","case_name":"People v. Dufault","case_name_full":"","federal_cite_one":"","federal_cite_two":"","federal_cite_three":"","state_cite_one":"1 Cal. App. 2d 105","state_cite_two":"","state_cite_three":"","state_cite_regional":"","specialty_cite_one":"","scotus_early_cite":"","lexis_cite":"","westlaw_cite":"","neutral_cite":"","scdb_id":"","scdb_decision_direction":null,"scdb_votes_majority":null,"scdb_votes_minority":null,"source":"L","procedural_history":"","attorneys":"","nature_of_suit":"","posture":"","syllabus":"","citation_count":10,"precedential_status":"Published","date_blocked":null,"blocked":false},{"resource_uri":"https://www.courtlistener.com/api/rest/v3/clusters/2608079/","absolute_url":"/opinion/2608079/people-v-campbell/","panel":[],"non_participating_judges":[],"docket":"https://www.courtlistener.com/api/rest/v3/dockets/204135/","sub_opinions":["https://www.courtlistener.com/api/rest/v3/opinions/2608079/"],"judges":"Barnard","per_curiam":false,"date_created":"2014-10-30T07:30:51.203771Z","date_modified":"2016-03-03T22:32:08.932231Z","date_filed":"1934-09-26","slug":"people-v-campbell","citation_id":2580851,"case_name_short":"Campbell","case_name":"People v. Campbell","case_name_full":"","federal_cite_one":"","federal_cite_two":"","federal_cite_three":"","state_cite_one":"1 Cal. App. 2d 109","state_cite_two":"","state_cite_three":"","state_cite_regional":"","specialty_cite_one":"","scotus_early_cite":"","lexis_cite":"","westlaw_cite":"","neutral_cite":"","scdb_id":"","scdb_decision_direction":null,"scdb_votes_majority":null,"scdb_votes_minority":null,"source":"L","procedural_history":"","attorneys":"","nature_of_suit":"","posture":"","syllabus":"","citation_count":4,"precedential_status":"Published","date_blocked":null,"blocked":false},{"resource_uri":"https://www.courtlistener.com/api/rest/v3/clusters/2608126/","absolute_url":"/opinion/2608126/salmon-v-allen/","panel":[],"non_participating_judges":[],"docket":"https://www.courtlistener.com/api/rest/v3/dockets/187658/","sub_opinions":["https://www.courtlistener.com/api/rest/v3/opinions/2608126/"],"judges":"","per_curiam":false,"date_created":"2014-10-30T07:22:18.991046Z","date_modified":"2016-03-03T22:32:09.332312Z","date_filed":"1934-09-27","slug":"salmon-v-allen","citation_id":2580898,"case_name_short":"Salmon","case_name":"Salmon v. Allen","case_name_full":"","federal_cite_one":"","federal_cite_two":"","federal_cite_three":"","state_cite_one":"1 Cal. App. 2d 115","state_cite_two":"","state_cite_three":"","state_cite_regional":"","specialty_cite_one":"","scotus_early_cite":"","lexis_cite":"","westlaw_cite":"","neutral_cite":"","scdb_id":"","scdb_decision_direction":null,"scdb_votes_majority":null,"scdb_votes_minority":null,"source":"L","procedural_history":"","attorneys":"","nature_of_suit":"","posture":"","syllabus":"","citation_count":4,"precedential_status":"Published","date_blocked":null,"blocked":false},{"resource_uri":"https://www.courtlistener.com/api/rest/v3/clusters/2608095/","absolute_url":"/opinion/2608095/hooper-co-v-freeman-smith-camp-co/","panel":[],"non_participating_judges":[],"docket":"https://www.courtlistener.com/api/rest/v3/dockets/187589/","sub_opinions":["https://www.courtlistener.com/api/rest/v3/opinions/2608095/"],"judges":"Spence","per_curiam":false,"date_created":"2014-10-30T07:22:17.857368Z","date_modified":"2016-03-03T22:32:09.092578Z","date_filed":"1934-09-27","slug":"hooper-co-v-freeman-smith-camp-co","citation_id":2580867,"case_name_short":"","case_name":"Hooper & Co. v. Freeman-Smith-Camp Co.","case_name_full":"","federal_cite_one":"","federal_cite_two":"","federal_cite_three":"","state_cite_one":"1 Cal. App. 2d 122","state_cite_two":"","state_cite_three":"","state_cite_regional":"","specialty_cite_one":"","scotus_early_cite":"","lexis_cite":"","westlaw_cite":"","neutral_cite":"","scdb_id":"","scdb_decision_direction":null,"scdb_votes_majority":null,"scdb_votes_minority":null,"source":"L","procedural_history":"","attorneys":"","nature_of_suit":"","posture":"","syllabus":"","citation_count":3,"precedential_status":"Published","date_blocked":null,"blocked":false},{"resource_uri":"https://www.courtlistener.com/api/rest/v3/clusters/2608083/","absolute_url":"/opinion/2608083/city-of-pasadena-v-chamberlain/","panel":[],"non_participating_judges":[],"docket":"https://www.courtlistener.com/api/rest/v3/dockets/187251/","sub_opinions":["https://www.courtlistener.com/api/rest/v3/opinions/2608083/"],"judges":"","per_curiam":false,"date_created":"2014-10-30T07:22:11.883511Z","date_modified":"2016-03-03T22:32:08.970077Z","date_filed":"1934-09-27","slug":"city-of-pasadena-v-chamberlain","citation_id":2580855,"case_name_short":"Chamberlain","case_name":"City of Pasadena v. Chamberlain","case_name_full":"","federal_cite_one":"","federal_cite_two":"","federal_cite_three":"","state_cite_one":"1 Cal. App. 2d 125","state_cite_two":"","state_cite_three":"","state_cite_regional":"","specialty_cite_one":"","scotus_early_cite":"","lexis_cite":"","westlaw_cite":"","neutral_cite":"","scdb_id":"","scdb_decision_direction":null,"scdb_votes_majority":null,"scdb_votes_minority":null,"source":"L","procedural_history":"","attorneys":"","nature_of_suit":"","posture":"","syllabus":"","citation_count":5,"precedential_status":"Published","date_blocked":null,"blocked":false},{"resource_uri":"https://www.courtlistener.com/api/rest/v3/clusters/2608066/","absolute_url":"/opinion/2608066/morris-v-purity-sausage-co/","panel":[],"non_participating_judges":[],"docket":"https://www.courtlistener.com/api/rest/v3/dockets/2539437/","sub_opinions":["https://www.courtlistener.com/api/rest/v3/opinions/2608066/"],"judges":"","per_curiam":false,"date_created":"2014-10-31T00:36:58.566247Z","date_modified":"2016-03-03T22:32:08.821775Z","date_filed":"1934-09-27","slug":"morris-v-purity-sausage-co","citation_id":2580838,"case_name_short":"Morris","case_name":"Morris v. Purity Sausage Co.","case_name_full":"","federal_cite_one":"","federal_cite_two":"","federal_cite_three":"","state_cite_one":"1 Cal. App. 2d 120","state_cite_two":"","state_cite_three":"","state_cite_regional":"","specialty_cite_one":"","scotus_early_cite":"","lexis_cite":"","westlaw_cite":"","neutral_cite":"","scdb_id":"","scdb_decision_direction":null,"scdb_votes_majority":null,"scdb_votes_minority":null,"source":"L","procedural_history":"","attorneys":"","nature_of_suit":"","posture":"","syllabus":"","citation_count":3,"precedential_status":"Published","date_blocked":null,"blocked":false}]}